{
  "name": "WC Occupancy Indicator",
  "device_id": "wc_occupancy_indicator",
  "device_stats_interval": 60,
  "wifi": {
    "ssid": "magora_new",
    "password": "135corporation642"
  },
  "mqtt": {
    "host": "192.168.0.243",
    "port": 1883,
    "base_topic": "smart_office/",
    "auth": false,
    "username": "user",
    "password": "pass"
  },
  "ota": {
    "enabled": true
  },
  "settings": {
  }
}